{
   "type": "mysql",
   "host": "localhost",
   "port": 3306,
   "username": "test",
   "password": "test",
   "database": "test",
   "synchronize": true,
   "logging": false,
   "entities": [
      "backend/entity/**/*.ts"
   ],
   "migrations": [
      "backend/migration/**/*.ts"
   ],
   "subscribers": [
      "backend/subscriber/**/*.ts"
   ],
   "cli": {
      "entitiesDir": "backend/entity",
      "migrationsDir": "backend/migration",
      "subscribersDir": "backend/subscriber"
   }
}